<!-- Generated by IcoMoon.io -->
<svg version="1.1" xmlns="http://www.w3.org/2000/svg" width="20" height="20" viewBox="0 0 20 20">
<title>list</title>
<path d="M6.667 5.833h10.833c0.46 0 0.833-0.373 0.833-0.833s-0.373-0.833-0.833-0.833h-10.833c-0.46 0-0.833 0.373-0.833 0.833s0.373 0.833 0.833 0.833zM6.667 10.833h10.833c0.46 0 0.833-0.373 0.833-0.833s-0.373-0.833-0.833-0.833h-10.833c-0.46 0-0.833 0.373-0.833 0.833s0.373 0.833 0.833 0.833zM6.667 15.833h10.833c0.46 0 0.833-0.373 0.833-0.833s-0.373-0.833-0.833-0.833h-10.833c-0.46 0-0.833 0.373-0.833 0.833s0.373 0.833 0.833 0.833zM2.5 5.833c0.46 0 0.833-0.373 0.833-0.833s-0.373-0.833-0.833-0.833-0.833 0.373-0.833 0.833 0.373 0.833 0.833 0.833zM2.5 10.833c0.46 0 0.833-0.373 0.833-0.833s-0.373-0.833-0.833-0.833-0.833 0.373-0.833 0.833 0.373 0.833 0.833 0.833zM2.5 15.833c0.46 0 0.833-0.373 0.833-0.833s-0.373-0.833-0.833-0.833-0.833 0.373-0.833 0.833 0.373 0.833 0.833 0.833z"></path>
</svg>
